…
simulate a lot

``` r
output = vector("list", length = 100)

for (i in 1:100){
  output[[i]] = sim_mean_sd(30)
}

bind_rows(output)
```

    ## # A tibble: 100 x 2
    ##    mu_hat sigma_hat
    ##     <dbl>     <dbl>
    ##  1   2.27      3.11
    ##  2   1.39      2.55
    ##  3   2.33      2.63
    ##  4   3.17      2.10
    ##  5   1.50      3.23
    ##  6   1.16      3.21
    ##  7   2.07      3.76
    ##  8   2.20      2.64
    ##  9   2.39      2.67
    ## 10   2.62      3.22
    ## # ... with 90 more rows
…
