…
dynamite_reviews = bind_rows(
  read_page_reviews(vec_urls[1]),
  read_page_reviews(vec_urls[2]),
  read_page_reviews(vec_urls[3]),
  read_page_reviews(vec_urls[4]),
  read_page_reviews(vec_urls[5])
)

dynamite_reviews
```

    ## # A tibble: 50 x 3
    ##    title                  stars text                                            
    ##    <chr>                  <dbl> <chr>                                           
    ##  1 Vote for Pedro!            5 Just watch the movie. Gosh!                     
    ##  2 Just watch the freaki~     5 Its a great movie, gosh!!                       
    ##  3 Great Value                5 Great Value                                     
    ##  4 I LOVE THIS MOVIE          5 THIS MOVIE IS SO FUNNY ONE OF MY FAVORITES      
    ##  5 Don't you wish you co~     5 Watch it 100 times. Never. Gets. Old.           
    ##  6 Stupid, but very funn~     5 If you like stupidly funny '90s teenage movies ~
    ##  7 The beat                   5 The best                                        
    ##  8 Hilarious                  5 Super funny! Loved the online rental.           
    ##  9 Love this movie            5 We love this product.  It came in a timely mann~
    ## 10 Entertaining, limited~     4 Entertainment level gets a 5 star but having pr~
    ## # ... with 40 more rows
…
